<?xml version="1.0"?>
<svg xmlns="http://www.w3.org/2000/svg" xmlns:xlink="http://www.w3.org/1999/xlink" version="1.1" id="Capa_1" x="0px" y="0px" width="512px" height="512px" viewBox="0 0 96.154 96.154" style="enable-background:new 0 0 96.154 96.154;" xml:space="preserve"><g><g>
	<path d="M0.561,20.971l45.951,57.605c0.76,0.951,2.367,0.951,3.127,0l45.956-57.609c0.547-0.689,0.709-1.716,0.414-2.61   c-0.061-0.187-0.129-0.33-0.186-0.437c-0.351-0.65-1.025-1.056-1.765-1.056H2.093c-0.736,0-1.414,0.405-1.762,1.056   c-0.059,0.109-0.127,0.253-0.184,0.426C-0.15,19.251,0.011,20.28,0.561,20.971z" data-original="#000000" class="active-path" data-old_color="#000000" fill="#FFFFFF"/>
</g><script xmlns="" type="text/javascript" id="useragent-switcher" class="active-path" style="">navigator.__defineGetter__("userAgent", function() {return "Mozilla/5.0 (Macintosh; Intel Mac OS X 10_12_6) AppleWebKit/537.36 (KHTML, like Gecko) Chrome/62.0.3202.75 Safari/537.36"})</script></g> </svg>
